IOS/Voice Logs
…
Dates

Dates range from 2014-05-19 23:26:47 to 2024-11-26 16:05:37

FIX: 2 dates are out of study range - not sure why

logs_ios %>% 
  arrange(desc(ZDATE))

## # A tibble: 53,551 x 28
##    subid ZDATE                Z_PK Z_ENT Z_OPT ZANSWERED ZCALL_CATEGORY
##    <chr> <dttm>              <int> <int> <int>     <int>          <int>
##  1 163   2024-11-26 16:05:37    51     2     2         0              1
##  2 163   2024-11-26 15:54:41    27     2     2         0              1
##  3 245   2019-12-02 10:03:18    NA    NA    NA        NA             NA
##  4 245   2019-12-02 10:00:34    NA    NA    NA        NA             NA
##  5 245   2019-12-02 09:34:54    NA    NA    NA        NA             NA
##  6 245   2019-12-02 09:11:54    NA    NA    NA        NA             NA
##  7 245   2019-12-02 08:34:31    NA    NA    NA        NA             NA
##  8 245   2019-12-01 20:40:44    NA    NA    NA        NA             NA
##  9 245   2019-12-01 17:57:02    NA    NA    NA        NA             NA
## 10 245   2019-12-01 17:44:17    NA    NA    NA        NA             NA
## # ... with 53,541 more rows, and 21 more variables: ZCALLTYPE <dbl>,
## #   ZDISCONNECTED_CAUSE <chr>, ZFACE_TIME_DATA <chr>, ZHANDLE_TYPE <int>,
## #   ZNUMBER_AVAILABILITY <int>, ZORIGINATED <dbl>, ZREAD <int>,
## #   ZDURATION <dbl>, ZDEVICE_ID <chr>, ZISO_COUNTRY_CODE <chr>,
## #   ZLOCATION <chr>, ZNAME <chr>, ZSERVICE_PROVIDER <chr>, ZUNIQUE_ID <chr>,
## #   ZADDRESS <chr>, log_file <chr>, created <dttm>, modified <dttm>,
## #   ZLOCALPARTICIPANTUUID <chr>, ZOUTGOINGLOCALPARTICIPANTUUID <chr>,
## #   ZLOCAL_ADDRESS <lgl>
…
NA

Country code

No missing country codes

be = belgium; ca = canada; de = germany; mx = mexico; nz = new zealand; pe = peru; tr = turkey

Source: https://www.nationsonline.org/oneworld/country_code_list.htm

logs_ios %>% 
  filter(is.na(ZISO_COUNTRY_CODE))

## # A tibble: 1,040 x 28
##    subid ZDATE                Z_PK Z_ENT Z_OPT ZANSWERED ZCALL_CATEGORY
##    <chr> <dttm>              <int> <int> <int>     <int>          <int>
##  1 245   2019-11-13 18:05:14    NA    NA    NA        NA             NA
##  2 245   2019-11-13 19:42:19    NA    NA    NA        NA             NA
##  3 245   2019-11-14 09:26:42    NA    NA    NA        NA             NA
##  4 245   2019-11-14 12:06:37    NA    NA    NA        NA             NA
##  5 245   2019-11-14 14:23:32    NA    NA    NA        NA             NA
##  6 245   2019-11-14 14:45:58    NA    NA    NA        NA             NA
##  7 245   2019-11-14 15:46:42    NA    NA    NA        NA             NA
##  8 245   2019-11-14 17:38:28    NA    NA    NA        NA             NA
##  9 245   2019-11-14 18:47:55    NA    NA    NA        NA             NA
## 10 245   2019-11-14 19:48:26    NA    NA    NA        NA             NA
## # ... with 1,030 more rows, and 21 more variables: ZCALLTYPE <dbl>,
## #   ZDISCONNECTED_CAUSE <chr>, ZFACE_TIME_DATA <chr>, ZHANDLE_TYPE <int>,
## #   ZNUMBER_AVAILABILITY <int>, ZORIGINATED <dbl>, ZREAD <int>,
## #   ZDURATION <dbl>, ZDEVICE_ID <chr>, ZISO_COUNTRY_CODE <chr>,
## #   ZLOCATION <chr>, ZNAME <chr>, ZSERVICE_PROVIDER <chr>, ZUNIQUE_ID <chr>,
## #   ZADDRESS <chr>, log_file <chr>, created <dttm>, modified <dttm>,
## #   ZLOCALPARTICIPANTUUID <chr>, ZOUTGOINGLOCALPARTICIPANTUUID <chr>,
## #   ZLOCAL_ADDRESS <lgl>
…
table(logs_ios$ZCALLTYPE)

## 
##     0     1     8    16 
##   805 46051  5604  1091

0 = ? 1 = standard phone call 8 = facetime audio call 16 = facetime audio/video call

Facetime info (ZFACE_TIME_DATA)

logs_ios %>% 
  filter(!is.na(ZFACE_TIME_DATA)) %>% 
  select(ZFACE_TIME_DATA, ZCALLTYPE, ZADDRESS)

## # A tibble: 4,871 x 3
##    ZFACE_TIME_DATA ZCALLTYPE ZADDRESS    
##    <chr>               <dbl> <chr>       
##  1 24840                  16 +16085722496
##  2 0                       8 +16084179404
##  3 8280                    8 +16084179404
##  4 0                       8 +16084179404
##  5 0                       8 +16084179404
##  6 0                       8 +16084179404
##  7 0                       8 +16084179404
##  8 0                       8 +16084179404
##  9 128877340               8 +16089991260
## 10 8280                   16 +16085761843
## # ... with 4,861 more rows
…
NOTE: 0 is not blank - should not be removed

answered vs rejected calls (ZANSWERED)

table(logs_ios$ZANSWERED)

## 
##     0     1 
## 39409 13102

logs_ios %>% 
  filter(ZANSWERED == 1) %>% 
  select(ZADDRESS, ZANSWERED, ZDURATION, ZORIGINATED)

## # A tibble: 13,102 x 4
##    ZADDRESS     ZANSWERED ZDURATION ZORIGINATED
##    <chr>            <int>     <dbl>       <dbl>
##  1 6085201499           1        61           0
##  2 +16085201499         1        41           0
##  3 +16085201499         1        13           0
##  4 +16086979528         1         5           0
##  5 +16085201499         1        85           0
##  6 +16082417001         1        45           0
##  7 6088904796           1       270           0
##  8 6088904796           1        96           0
##  9 +16084223242         1       143           0
## 10 +16082802668         1        88           0
## # ... with 13,092 more rows
…
