Contacts Check Script
…
SOCIAL WORKER/CASE MANAGER

1

168 of the 187 non-spam contacts with missing context variables are identified as self.

Participants with self contact

contacts %>% 
  filter(contact_type == "SELF") %>% 
  group_by(subid) %>% 
  summarise(n = n())

## # A tibble: 154 x 2
##    subid     n
##    <dbl> <int>
##  1     1     1
##  2     2     1
##  3     3     1
##  4     5     1
##  5     6     1
##  6     7     1
##  7     9     1
##  8    10     1
##  9    11     1
## 10    15     1
## #  with 144 more rows
…
